%YAML 1.1
%TAG !u! tag:unity3d.com,2011:
--- !u!162 &1
EditorUserSettings:
  m_ObjectHideFlags: 0
  serializedVersion: 4
  m_ConfigSettings:
    RecentlyUsedSceneGuid-0:
      value: 075306505d5051025d5f5d7a13770744134f1d7e7f2c2569287b4c6ab2e5613c
      flags: 0
    RecentlyUsedSceneGuid-1:
      value: 51030c54065651095e0f5a2141750c444e1619787b7d20692f2c4432b5e1676c
      flags: 0
    RecentlyUsedSceneGuid-2:
      value: 5b08050250535108540c5c7142700f4415161e7a2a7e71647d2a4435e4e5636f
      flags: 0
    RecentlyUsedSceneGuid-3:
      value: 55060051010d0c0f5b0f0f7a15740d44474f1a7e7c7d77632e284b30b7b76c3b
      flags: 0
    RecentlyUsedSceneGuid-4:
      value: 515250075c0c595e5f5a5e71122159444e4e4a2f7a7d7f602f284d66b4b76661
      flags: 0
    vcSharedLogLevel:
      value: 0d5e400f0650
      flags: 0
  m_VCAutomaticAdd: 1
  m_VCDebugCom: 0
  m_VCDebugCmd: 0
  m_VCDebugOut: 0
  m_SemanticMergeMode: 2
  m_DesiredImportWorkerCount: 4
  m_StandbyImportWorkerCount: 2
  m_IdleImportWorkerShutdownDelay: 60000
  m_VCShowFailedCheckout: 1
  m_VCOverwriteFailedCheckoutAssets: 1
  m_VCProjectOverlayIcons: 1
  m_VCHierarchyOverlayIcons: 1
  m_VCOtherOverlayIcons: 1
  m_VCAllowAsyncUpdate: 1
  m_ArtifactGarbageCollection: 1
